Student,Course,Grade
Student A,Class #1,93
Student A,Class #2,85
Student A,Class #4,80
Student A,Class #6,93
Student A,Class #8,92
Student B,Class #4,75
Student B,Class #5,97
Student B,Class #7,92
Student B,Class #8,91
Student B,Class #9,91
Student C,Class #2,80
Student C,Class #3,100
Student C,Class #7,89
Student C,Class #8,90
Student C,Class #9,89
Student D,Class #1,90
Student D,Class #3,95
Student D,Class #5,95
Student D,Class #6,85
Student D,Class #8,88